<define-tag pagetitle>DSA-4352-1 chromium-browser</define-tag>
<define-tag report_date>2018-12-07</define-tag>
<define-tag secrefs>CVE-2018-17480 CVE-2018-17481 CVE-2018-18335 CVE-2018-18336 CVE-2018-18337 CVE-2018-18338 CVE-2018-18339 CVE-2018-18340 CVE-2018-18341 CVE-2018-18342 CVE-2018-18343 CVE-2018-18344 CVE-2018-18345 CVE-2018-18346 CVE-2018-18347 CVE-2018-18348 CVE-2018-18349 CVE-2018-18350 CVE-2018-18351 CVE-2018-18352 CVE-2018-18353 CVE-2018-18354 CVE-2018-18355 CVE-2018-18356 CVE-2018-18357 CVE-2018-18358 CVE-2018-18359</define-tag>
<define-tag packages>chromium-browser</define-tag>
<define-tag isvulnerable>yes</define-tag>
<define-tag fixed>yes</define-tag>
<define-tag fixed-section>no</define-tag>

#use wml::debian::security



</dl>
