<define-tag pagetitle>DSA-4655-1 firefox-esr</define-tag>
<define-tag report_date>2020-4-08</define-tag>
<define-tag secrefs>CVE-2020-6821 CVE-2020-6822 CVE-2020-6825</define-tag>
<define-tag packages>firefox-esr</define-tag>
<define-tag isvulnerable>yes</define-tag>
<define-tag fixed>yes</define-tag>
<define-tag fixed-section>no</define-tag>

#use wml::debian::security



</dl>
