<define-tag pagetitle>DLA-0008-1 openssl</define-tag>
<define-tag report_date>2014-6-20</define-tag>
<define-tag secrefs>CVE-2014-0224 CVE-2012-4929</define-tag>
<define-tag packages>openssl</define-tag>
<define-tag isvulnerable>yes</define-tag>
<define-tag fixed>yes</define-tag>
<define-tag fixed-section>no</define-tag>

#use wml::debian::security

