<define-tag pagetitle>DLA-790-1 mapserver</define-tag>
<define-tag report_date>2017-1-19</define-tag>
<define-tag secrefs>CVE-2017-5522</define-tag>
<define-tag packages>mapserver</define-tag>
<define-tag isvulnerable>yes</define-tag>
<define-tag fixed>yes</define-tag>
<define-tag fixed-section>no</define-tag>

#use wml::debian::security

