<define-tag pagetitle>DLA-1037-1 catdoc</define-tag>
<define-tag report_date>2017-7-24</define-tag>
<define-tag secrefs>CVE-2017-11110 Bug#867717</define-tag>
<define-tag packages>catdoc</define-tag>
<define-tag isvulnerable>yes</define-tag>
<define-tag fixed>yes</define-tag>
<define-tag fixed-section>no</define-tag>

#use wml::debian::security

