<define-tag pagetitle>DLA-1080-1 gnupg</define-tag>
<define-tag report_date>2017-8-31</define-tag>
<define-tag secrefs>CVE-2017-7526</define-tag>
<define-tag packages>gnupg</define-tag>
<define-tag isvulnerable>yes</define-tag>
<define-tag fixed>yes</define-tag>
<define-tag fixed-section>no</define-tag>

#use wml::debian::security

