<define-tag pagetitle>DLA-1208-1 reportbug</define-tag>
<define-tag report_date>2017-12-15</define-tag>
<define-tag secrefs>Bug#878088</define-tag>
<define-tag packages>reportbug</define-tag>
<define-tag isvulnerable>yes</define-tag>
<define-tag fixed>yes</define-tag>
<define-tag fixed-section>no</define-tag>

#use wml::debian::security

