<define-tag pagetitle>DLA-1016-1 radare2</define-tag>
<define-tag report_date>2017-7-6</define-tag>
<define-tag secrefs>CVE-2017-10929 Bug##867369</define-tag>
<define-tag packages>radare2</define-tag>
<define-tag isvulnerable>yes</define-tag>
<define-tag fixed>yes</define-tag>
<define-tag fixed-section>no</define-tag>

#use wml::debian::security

