<define-tag pagetitle>DLA-929-1 libpodofo</define-tag>
<define-tag report_date>2017-4-29</define-tag>
<define-tag secrefs>CVE-2015-8981 CVE-2017-5852 CVE-2017-5853 CVE-2017-5854 CVE-2017-5886 CVE-2017-6844 CVE-2017-7379 Bug#854599 Bug#854600 Bug#854601 Bug#854602 Bug#854604 Bug#859331</define-tag>
<define-tag packages>libpodofo</define-tag>
<define-tag isvulnerable>yes</define-tag>
<define-tag fixed>yes</define-tag>
<define-tag fixed-section>no</define-tag>

#use wml::debian::security

