<define-tag pagetitle>DLA-2188-1 php5</define-tag>
<define-tag report_date>2020-4-26</define-tag>
<define-tag secrefs>CVE-2020-7064 CVE-2020-7066 CVE-2020-7067</define-tag>
<define-tag packages>php5</define-tag>
<define-tag isvulnerable>yes</define-tag>
<define-tag fixed>yes</define-tag>
<define-tag fixed-section>no</define-tag>

#use wml::debian::security

