<define-tag pagetitle>DLA-2304-1 libpam-radius-auth</define-tag>
<define-tag report_date>2020-08-01</define-tag>
<define-tag secrefs>CVE-2015-9542 Bug#951396</define-tag>
<define-tag packages>libpam-radius-auth</define-tag>
<define-tag isvulnerable>yes</define-tag>
<define-tag fixed>yes</define-tag>
<define-tag fixed-section>no</define-tag>

#use wml::debian::security

