<define-tag pagetitle>DLA-2260-1 mcabber</define-tag>
<define-tag report_date>2020-6-28</define-tag>
<define-tag secrefs>CVE-2016-9928</define-tag>
<define-tag packages>mcabber</define-tag>
<define-tag isvulnerable>yes</define-tag>
<define-tag fixed>yes</define-tag>
<define-tag fixed-section>no</define-tag>

#use wml::debian::security

