<define-tag pagetitle>DLA-2077-1 tomcat7</define-tag>
<define-tag report_date>2020-1-28</define-tag>
<define-tag secrefs>CVE-2019-12418 CVE-2019-17563</define-tag>
<define-tag packages>tomcat7</define-tag>
<define-tag isvulnerable>yes</define-tag>
<define-tag fixed>yes</define-tag>
<define-tag fixed-section>no</define-tag>

#use wml::debian::security

