<define-tag pagetitle>DLA-1400-1 tomcat7</define-tag>
<define-tag report_date>2018-6-27</define-tag>
<define-tag secrefs>CVE-2017-7674 CVE-2017-12616 CVE-2018-1304 CVE-2018-1305 CVE-2018-8014 Bug#802312 Bug#898935</define-tag>
<define-tag packages>tomcat7</define-tag>
<define-tag isvulnerable>yes</define-tag>
<define-tag fixed>yes</define-tag>
<define-tag fixed-section>no</define-tag>

#use wml::debian::security

