<define-tag pagetitle>DSA-4487-1 neovim</define-tag>
<define-tag report_date>2019-7-23</define-tag>
<define-tag secrefs>CVE-2019-12735</define-tag>
<define-tag packages>neovim</define-tag>
<define-tag isvulnerable>yes</define-tag>
<define-tag fixed>yes</define-tag>
<define-tag fixed-section>no</define-tag>

#use wml::debian::security



</dl>
