<define-tag pagetitle>DLA-1903-1 subversion</define-tag>
<define-tag report_date>2019-08-29</define-tag>
<define-tag secrefs>CVE-2018-11782 CVE-2019-0203</define-tag>
<define-tag packages>subversion</define-tag>
<define-tag isvulnerable>yes</define-tag>
<define-tag fixed>yes</define-tag>
<define-tag fixed-section>no</define-tag>

#use wml::debian::security

