<define-tag pagetitle>DLA-2033-1 php-horde</define-tag>
<define-tag report_date>2019-12-13</define-tag>
<define-tag secrefs>CVE-2019-12095</define-tag>
<define-tag packages>php-horde</define-tag>
<define-tag isvulnerable>yes</define-tag>
<define-tag fixed>yes</define-tag>
<define-tag fixed-section>no</define-tag>

#use wml::debian::security

