<define-tag pagetitle>DLA-1676-1 unbound</define-tag>
<define-tag report_date>2019-2-14</define-tag>
<define-tag secrefs>CVE-2017-15105 Bug#887733</define-tag>
<define-tag packages>unbound</define-tag>
<define-tag isvulnerable>yes</define-tag>
<define-tag fixed>yes</define-tag>
<define-tag fixed-section>no</define-tag>

#use wml::debian::security

