<define-tag pagetitle>DLA-448-1 subversion</define-tag>
<define-tag report_date>2016-5-1</define-tag>
<define-tag secrefs>CVE-2016-2167 CVE-2016-2168</define-tag>
<define-tag packages>subversion</define-tag>
<define-tag isvulnerable>yes</define-tag>
<define-tag fixed>yes</define-tag>
<define-tag fixed-section>no</define-tag>

#use wml::debian::security

