<define-tag pagetitle>DLA-582-1 libidn</define-tag>
<define-tag report_date>2016-8-2</define-tag>
<define-tag secrefs>CVE-2015-8948 CVE-2016-6261 CVE-2016-6263</define-tag>
<define-tag packages>libidn</define-tag>
<define-tag isvulnerable>yes</define-tag>
<define-tag fixed>yes</define-tag>
<define-tag fixed-section>no</define-tag>

#use wml::debian::security

